starter.utf8
…
##   total_time_s       
##  Min.   :-1.506e+09  
##  1st Qu.: 4.800e+02  
##  Median : 1.080e+03  
##  Mean   :-1.146e+05  
##  3rd Qu.: 2.340e+03  
##  Max.   : 4.346e+05

trip_log %>%
  arrange(total_time_s) %>% 
  filter(total_time_s < 0) 

## # A tibble: 21 x 17
##    user_id start_hub start_latitude start_longitude end_hub end_latitude
##      <dbl> <chr>     <chr>          <chr>           <chr>   <chr>       
##  1  463220 <NA>      33.779015      -84.37169833    <NA>    33.77900667 
##  2  535402 <NA>      33.78634667    -84.37788       CENTEN 33.76034    
##  3  519401 <NA>      33.77382       -84.40158833    GEORGI 33.775615   
##  4  496381 <NA>      -              -               GEORGI -           
##  5  526430 <NA>      33.78172833    -84.37911667    KING O 33.76371167 
##  6  555404 <NA>      33.75431833    -84.36533167    ATLANT 33.75257333 
##  7  557718 GREENWOO 33.77675333    -84.36523833    IRWIN  33.75759667 
##  8  402627 Relay HQ  -              -               Relay  -           
##  9  526428 OUTWRIGH 33.78178333    -84.37911       KING O 33.76371833 
## 10  149349 PIEDMONT 33.78644667    -84.37789       <NA>    33.75773833 
## #  with 11 more rows, and 11 more variables: end_longitude <chr>,
## #   total_distance <dbl>, total_cost <dbl>, start_time_iso <dttm>,
## #   end_time_iso <dttm>, start_date <date>, start_wday <ord>,
## #   time_h <int>, time_interval <S4: Interval>, total_time_s <dbl>,
## #   time_error_flag <chr>
…
